01 012 00000870 015 016 01 00 00 00 00000700 14/08/17 11:50:13              00 00000700 00000000 00000000 00000000 O
01 012 00000871 015 017 01 00 00 00 00000800 14/08/17 11:50:19              00 00000800 00000000 00000000 00000000 O
01 012 00000872 015 018 01 00 00 00 00001000 14/08/17 11:51:01              00 00001000 00000000 00000000 00000000 O
