01 009 00000845 015 016 01 00 00 00 00000700 03/07/17 10:18:01              00 00000700 00000000 00000000 00000000 O
01 009 00000846 015 016 01 00 00 00 00000700 03/07/17 10:18:04              00 00000700 00000000 00000000 00000000 O
01 009 00000847 015 016 01 00 00 00 00000700 03/07/17 10:18:06              00 00000700 00000000 00000000 00000000 O
01 009 00000848 015 016 01 00 00 00 00000700 03/07/17 10:22:06              00 00000700 00000000 00000000 00000000 O
01 009 00000849 015 017 01 00 00 00 00000800 03/07/17 10:22:08              00 00000800 00000000 00000000 00000000 O
01 009 00000850 015 018 01 00 00 00 00001000 03/07/17 10:22:12              00 00001000 00000000 00000000 00000000 O
01 009 00000851 015 018 01 00 00 00 00001000 03/07/17 10:22:15              00 00001000 00000000 00000000 00000000 O
01 009 00000845 015 016 01 00 00 00 00000700 03/07/17 10:18:01              00 00000700 00000000 00000000 00000000 O
01 009 00000846 015 016 01 00 00 00 00000700 03/07/17 10:18:04              00 00000700 00000000 00000000 00000000 O
01 009 00000847 015 016 01 00 00 00 00000700 03/07/17 10:18:06              00 00000700 00000000 00000000 00000000 O
01 009 00000848 015 016 01 00 00 00 00000700 03/07/17 10:22:06              00 00000700 00000000 00000000 00000000 O
01 009 00000849 015 017 01 00 00 00 00000800 03/07/17 10:22:08              00 00000800 00000000 00000000 00000000 O
01 009 00000850 015 018 01 00 00 00 00001000 03/07/17 10:22:12              00 00001000 00000000 00000000 00000000 O
01 009 00000851 015 018 01 00 00 00 00001000 03/07/17 10:22:15              00 00001000 00000000 00000000 00000000 O
