01 012 00000863 015 016 01 00 00 00 00000700 14/08/17 10:42:24              00 00000700 00000000 00000000 00000000 O
01 012 00000864 015 017 01 00 00 00 00000800 14/08/17 10:42:32              00 00000800 00000000 00000000 00000000 O
01 012 00000865 015 018 01 00 00 00 00001000 14/08/17 10:42:46              00 00001000 00000000 00000000 00000000 O
01 012 00000866 015 016 01 00 00 00 00000700 14/08/17 10:50:20              00 00000700 00000000 00000000 00000000 O
01 012 00000863 015 016 01 00 00 00 00000700 14/08/17 10:42:24              00 00000700 00000000 00000000 00000000 O
01 012 00000864 015 017 01 00 00 00 00000800 14/08/17 10:42:32              00 00000800 00000000 00000000 00000000 O
01 012 00000865 015 018 01 00 00 00 00001000 14/08/17 10:42:46              00 00001000 00000000 00000000 00000000 O
01 012 00000866 015 016 01 00 00 00 00000700 14/08/17 10:50:20              00 00000700 00000000 00000000 00000000 O
