01 012 00000876 015 016 01 00 00 00 00000700 14/08/17 12:44:24              00 00000700 00000000 00000000 00000000 O
01 012 00000877 015 018 01 00 00 00 00001000 14/08/17 12:44:27              00 00001000 00000000 00000000 00000000 O
01 012 00000878 015 019 01 00 00 00 00001100 14/08/17 12:44:31              00 00001100 00000000 00000000 00000000 O
01 012 00000879 015 020 01 00 00 00 00001200 14/08/17 12:44:35              00 00001200 00000000 00000000 00000000 O
01 012 00000876 015 016 01 00 00 00 00000700 14/08/17 12:44:24              00 00000700 00000000 00000000 00000000 O
01 012 00000877 015 018 01 00 00 00 00001000 14/08/17 12:44:27              00 00001000 00000000 00000000 00000000 O
01 012 00000878 015 019 01 00 00 00 00001100 14/08/17 12:44:31              00 00001100 00000000 00000000 00000000 O
01 012 00000879 015 020 01 00 00 00 00001200 14/08/17 12:44:35              00 00001200 00000000 00000000 00000000 O
