01 001 00000754 011 012 01 00 00 00 00000700 21/06/17 15:55:22              00 00000700 00000000 00000000 00000000 O
01 001 00000755 011 012 01 00 00 00 00000700 21/06/17 15:55:25              00 00000700 00000000 00000000 00000000 O
01 001 00000756 011 012 01 00 00 00 00000700 21/06/17 15:55:45              00 00000700 00000000 00000000 00000000 O
01 001 00000757 011 012 01 00 00 00 00000700 21/06/17 15:55:47              00 00000700 00000000 00000000 00000000 O
01 001 00000758 011 012 01 00 00 00 00000700 21/06/17 15:55:49              00 00000700 00000000 00000000 00000000 O
01 001 00000759 011 012 01 00 00 00 00000700 21/06/17 15:55:51              00 00000700 00000000 00000000 00000000 O
01 001 00000760 011 012 01 00 00 00 00000700 21/06/17 15:55:53              00 00000700 00000000 00000000 00000000 O
01 001 00000761 011 016 01 00 00 00 00001200 22/06/17 10:36:48              00 00001200 00000000 00000000 00000000 O
01 001 00000762 011 016 01 00 00 00 00001200 22/06/17 10:36:53              00 00001200 00000000 00000000 00000000 O
01 001 00000763 011 016 01 00 00 00 00001200 22/06/17 10:36:54              00 00001200 00000000 00000000 00000000 O
01 001 00000764 011 016 01 00 00 00 00001200 22/06/17 10:37:14              00 00001200 00000000 00000000 00000000 O
01 001 00000765 011 016 01 00 00 00 00001200 22/06/17 10:37:16              00 00001200 00000000 00000000 00000000 O
01 001 00000766 011 016 01 00 00 00 00001200 22/06/17 10:37:18              00 00001200 00000000 00000000 00000000 O
01 001 00000767 011 016 01 00 00 00 00001200 22/06/17 10:37:20              00 00001200 00000000 00000000 00000000 O
01 001 00000768 011 016 01 00 00 00 00001200 22/06/17 10:37:22              00 00001200 00000000 00000000 00000000 O
01 001 00000769 011 012 01 00 00 00 00000700 30/06/17 08:51:33              00 00000700 00000000 00000000 00000000 O
01 001 00000770 011 012 01 00 00 00 00000700 30/06/17 08:51:54              00 00000700 00000000 00000000 00000000 O
01 001 00000771 011 012 01 00 00 00 00000700 30/06/17 08:51:59              00 00000700 00000000 00000000 00000000 O
01 001 00000772 011 012 01 00 00 00 00000700 30/06/17 08:52:04              00 00000700 00000000 00000000 00000000 O
01 001 00000773 011 013 01 00 00 00 00000800 30/06/17 08:52:07              00 00000800 00000000 00000000 00000000 O
