01 013 00000786 009 010 01 00 00 00 00000700 01/07/17 14:58:34              00 00000700 00000000 00000000 00000000 O
01 013 00000787 009 010 01 00 00 00 00000700 01/07/17 14:58:37              00 00000700 00000000 00000000 00000000 O
01 013 00000788 009 010 01 00 00 00 00000700 01/07/17 14:58:39              00 00000700 00000000 00000000 00000000 O
01 013 00000789 009 010 01 00 00 00 00000700 01/07/17 14:58:41              00 00000700 00000000 00000000 00000000 O
01 013 00000790 009 010 01 00 00 00 00000700 01/07/17 14:58:46              00 00000700 00000000 00000000 00000000 O
01 013 00000791 009 010 01 00 00 00 00000700 01/07/17 14:58:49              00 00000700 00000000 00000000 00000000 O
01 013 00000792 009 011 01 00 00 00 00000800 01/07/17 14:58:51              00 00000800 00000000 00000000 00000000 O
