01 009 00000830 015 016 01 00 00 00 00000700 01/07/17 16:56:27              00 00000700 00000000 00000000 00000000 O
01 009 00000831 015 016 01 00 00 00 00000700 01/07/17 16:56:30              00 00000700 00000000 00000000 00000000 O
01 009 00000832 015 016 01 00 00 00 00000700 01/07/17 16:56:32              00 00000700 00000000 00000000 00000000 O
01 009 00000833 015 018 01 00 00 00 00001000 01/07/17 16:56:36              00 00001000 00000000 00000000 00000000 O
01 009 00000834 015 017 01 00 00 00 00000800 01/07/17 16:56:39              00 00000800 00000000 00000000 00000000 O
01 009 00000835 015 017 01 00 00 00 00000800 01/07/17 16:56:41              00 00000800 00000000 00000000 00000000 O
01 009 00000836 015 017 01 00 00 00 00000800 01/07/17 16:56:43              00 00000800 00000000 00000000 00000000 O
01 009 00000837 015 017 01 00 00 00 00000800 01/07/17 16:56:45              00 00000800 00000000 00000000 00000000 O
01 009 00000838 015 017 01 00 00 00 00000800 01/07/17 16:56:46              00 00000800 00000000 00000000 00000000 O
