01 001 00000754 011 012 01 00 00 00 00000700 21/06/17 15:55:22              00 00000700 00000000 00000000 00000000 O
01 001 00000755 011 012 01 00 00 00 00000700 21/06/17 15:55:25              00 00000700 00000000 00000000 00000000 O
01 001 00000756 011 012 01 00 00 00 00000700 21/06/17 15:55:45              00 00000700 00000000 00000000 00000000 O
01 001 00000757 011 012 01 00 00 00 00000700 21/06/17 15:55:47              00 00000700 00000000 00000000 00000000 O
01 001 00000758 011 012 01 00 00 00 00000700 21/06/17 15:55:49              00 00000700 00000000 00000000 00000000 O
01 001 00000759 011 012 01 00 00 00 00000700 21/06/17 15:55:51              00 00000700 00000000 00000000 00000000 O
01 001 00000760 011 012 01 00 00 00 00000700 21/06/17 15:55:53              00 00000700 00000000 00000000 00000000 O
-----------Downloading Data of Waybill no :- 1016746 on 21-Jun-17 4:26:57 PM -----------
01 001 00000754 011 012 01 00 00 00 00000700 21/06/17 15:55:22              00 00000700 00000000 00000000 00000000 O
01 001 00000755 011 012 01 00 00 00 00000700 21/06/17 15:55:25              00 00000700 00000000 00000000 00000000 O
01 001 00000756 011 012 01 00 00 00 00000700 21/06/17 15:55:45              00 00000700 00000000 00000000 00000000 O
01 001 00000757 011 012 01 00 00 00 00000700 21/06/17 15:55:47              00 00000700 00000000 00000000 00000000 O
01 001 00000758 011 012 01 00 00 00 00000700 21/06/17 15:55:49              00 00000700 00000000 00000000 00000000 O
01 001 00000759 011 012 01 00 00 00 00000700 21/06/17 15:55:51              00 00000700 00000000 00000000 00000000 O
01 001 00000760 011 012 01 00 00 00 00000700 21/06/17 15:55:53              00 00000700 00000000 00000000 00000000 O
