01 001 00000856 011 015 01 00 00 00 00001100 31/07/17 13:17:57              00 00001100 00000000 00000000 00000000 O
01 001 00000857 011 015 01 00 00 00 00001100 31/07/17 13:18:03              00 00001100 00000000 00000000 00000000 O
01 001 00000858 011 016 01 00 00 00 00001200 31/07/17 13:18:20              00 00001200 00000000 00000000 00000000 O
01 001 00000859 011 015 01 00 00 00 00001100 08/08/17 15:59:18              00 00001100 00000000 00000000 00000000 O
02 095 00000860 015 018 01 00 00 00 00001000 08/08/17 18:44:45              00 00001000 00000000 00000000 00000000 O
