$Error-No Response(Time Out)
01 012 00000886 015 016 01 00 00 00 00000700 14/08/17 15:34:11              00 00000700 00000000 00000000 00000000 O
01 012 00000887 015 019 01 00 00 00 00001100 14/08/17 15:34:16              00 00001100 00000000 00000000 00000000 O
01 012 00000888 015 020 01 00 00 00 00001200 14/08/17 15:34:21              00 00001200 00000000 00000000 00000000 O
01 012 00000889 015 021 01 00 00 00 00001400 14/08/17 15:34:25              00 00001400 00000000 00000000 00000000 O
