01 012 00000873 015 016 01 00 00 00 00000700 14/08/17 12:27:08              00 00000700 00000000 00000000 00000000 O
01 012 00000874 015 017 01 00 00 00 00000800 14/08/17 12:27:11              00 00000800 00000000 00000000 00000000 O
01 012 00000875 015 018 01 00 00 00 00001000 14/08/17 12:27:15              00 00001000 00000000 00000000 00000000 O
