01 001 00001028 011 018 01 00 00 00 00001600 01/09/17 14:15:58              00 00001600 00000000 00000000 00000000 O
01 001 00001029 018 023 01 00 00 00 00001200 01/09/17 14:16:39              00 00001200 00000000 00000000 00000000 O
02 002 00001030 011 018 01 00 00 00 00001600 01/09/17 14:16:54              00 00001600 00000000 00000000 00000000 O
03 008 00001031 009 021 01 00 00 00 00002200 01/09/17 14:17:42              00 00002200 00000000 00000000 00000000 O
03 008 00001032 009 012 01 00 00 00 00001000 02/09/17 09:15:05              00 00001000 00000000 00000000 00000000 O
03 008 00001033 009 020 01 00 00 00 00002100 02/09/17 16:49:25              00 00002100 00000000 00000000 00000000 O
03 008 00001034 009 021 09 00 00 00 00019800 02/09/17 16:49:48              00 00019800 00000000 00000000 00000000 O
03 008 00001035 009 010 02 00 00 00 00001400 02/09/17 18:03:13              00 00001400 00000000 00000000 00000000 O
03 008 00001036 009 012 01 00 00 00 00001000 02/09/17 18:03:44              00 00001000 00000000 00000000 00000000 O
04 008 00001037 009 016 01 00 00 00 00001600 04/09/17 16:58:28              00 00001600 00000000 00000000 00000000 O
04 008 PASS1038 009 021 00 00 00 01 00004000 07/09/17 14:13:58          M21 01 00000000 00000000 00000000 00004000 O
04 008 PASS1039 009 021 00 00 00 01 00004000 07/09/17 14:17:14          M22 01 00000000 00000000 00000000 00004000 O
04 008 PASS1040 009 021 00 00 00 01 00004000 07/09/17 14:17:35          M25 01 00000000 00000000 00000000 00004000 O
05 001 00001041 011 017 01 00 00 00 00001400 18/09/17 13:58:11              00 00001400 00000000 00000000 00000000 O
05 001 00001042 011 017 01 00 00 00 00001400 24/09/17 13:37:25              00 00001400 00000000 00000000 00000000 O
05 001 00001043 011 022 01 00 00 00 00002100 25/09/17 10:32:00              00 00002100 00000000 00000000 00000000 O
05 001 00001044 011 017 05 00 00 00 00007000 25/09/17 10:32:13              00 00007000 00000000 00000000 00000000 O
05 001 00001045 011 017 01 00 00 00 00001400 23/10/17 16:54:03              00 00001400 00000000 00000000 00000000 O
05 001 00001046 011 017 01 00 00 00 00001400 23/10/17 16:54:17              00 00001400 00000000 00000000 00000000 O
