01 017 LUGG0943 009 018 00 00 01 00 00000500 07/09/17 15:42:02              00 00000000 00000000 00000500 00000000 O
01 017 LUGG0944 009 018 00 00 01 00 00001000 07/09/17 15:42:14              00 00000000 00000000 00001000 00000000 O
01 017 00000945 009 016 01 00 00 00 00001600 07/09/17 15:42:20              00 00001600 00000000 00000000 00000000 O
01 017 00000946 009 017 01 00 00 00 00001800 07/09/17 15:42:22              00 00001800 00000000 00000000 00000000 O
01 017 00000947 009 018 01 00 00 00 00001900 07/09/17 15:42:25              00 00001900 00000000 00000000 00000000 O
01 017 00000948 009 018 01 00 00 00 00001900 07/09/17 15:42:27              00 00001900 00000000 00000000 00000000 O
01 017 00000949 009 017 01 00 00 00 00001800 07/09/17 15:51:33              00 00001800 00000000 00000000 00000000 O
01 017 00000950 009 017 01 00 00 00 00001800 07/09/17 15:51:35              00 00001800 00000000 00000000 00000000 O
01 017 00000951 009 017 01 00 00 00 00001800 07/09/17 15:51:38              00 00001800 00000000 00000000 00000000 O
01 017 00000952 009 017 01 00 00 00 00001800 07/09/17 15:59:33              00 00001800 00000000 00000000 00000000 O
01 017 00000953 009 017 01 00 00 00 00001800 07/09/17 15:59:34              00 00001800 00000000 00000000 00000000 O
01 017 00000954 009 016 01 00 00 00 00001600 07/09/17 16:12:27              00 00001600 00000000 00000000 00000000 O
01 017 00000955 009 016 01 00 00 00 00001600 07/09/17 16:12:28              00 00001600 00000000 00000000 00000000 O
