01 012 00000880 015 016 01 00 00 00 00000700 14/08/17 14:20:21              00 00000700 00000000 00000000 00000000 O
01 012 00000881 015 017 01 00 00 00 00000800 14/08/17 14:20:25              00 00000800 00000000 00000000 00000000 O
01 012 00000882 015 018 01 00 00 00 00001000 14/08/17 14:20:28              00 00001000 00000000 00000000 00000000 O
