01 011 00000820 014 015 01 00 00 00 00000700 01/07/17 16:45:27              00 00000700 00000000 00000000 00000000 O
01 011 00000821 014 015 01 00 00 00 00000700 01/07/17 16:45:29              00 00000700 00000000 00000000 00000000 O
01 011 00000822 014 015 01 00 00 00 00000700 01/07/17 16:45:31              00 00000700 00000000 00000000 00000000 O
01 011 00000823 014 015 01 00 00 00 00000700 01/07/17 16:45:33              00 00000700 00000000 00000000 00000000 O
01 011 00000824 014 016 01 00 00 00 00000800 01/07/17 16:45:39              00 00000800 00000000 00000000 00000000 O
01 011 00000825 014 015 01 00 00 00 00000700 01/07/17 16:45:48              00 00000700 00000000 00000000 00000000 O
01 011 00000826 014 015 01 00 00 00 00000700 01/07/17 16:45:50              00 00000700 00000000 00000000 00000000 O
01 011 00000827 014 015 01 00 00 00 00000700 01/07/17 16:45:53              00 00000700 00000000 00000000 00000000 O
