18-Oct-17 2:48:49 PM:  ConnectionString Data source=VIVEK;persist security info=False;initial catalog=KMT_ETVM_14082017;user id=sa;password=hello@12345;Pooling=False;
18-Oct-17 2:51:00 PM:   ds1 0
18-Oct-17 2:51:08 PM:   ds1 0
18-Oct-17 2:51:08 PM:  Executed waybillcreate 
18-Oct-17 2:51:08 PM:  Executed waybillcreate user id
18-Oct-17 2:51:08 PM:   Executing WAYBILL_ADD_UPDATE_DYNAMIC procedure
18-Oct-17 2:51:08 PM:  Successfully Executed WAYBILL_ADD_UPDATE_DYNAMIC procedure
18-Oct-17 2:51:12 PM:  Error occured in waybill save function Thread was being aborted. mscorlib
18-Oct-17 2:51:16 PM:  Program
18-Oct-17 2:51:18 PM:  checkandupdate_waybill 18-Oct-17 2:51:18 PM
